﻿Nimi, Distants, Aeg (s)
Hiir, 100, 10
Janes, 100, 12
Konn, 100, 40
Hurt, 100, 9
Poder, 100, 15
Hiir, 200, 25
Janes, 200, 20
Konn, 200, 80
Hurt, 200, 50
Mäger, 200, 120
Hunt, 400, 62
Janes, 400, 55
Konn, 400, 180
Hurt, 400, 90
Mäger, 400, 235
